{
  "apiKey": "AIzaSyDjHtULrbt18OCC87YOcr0JFAF3nLNkvys",
  "authDomain": "directory2-a9aaf.firebaseio.com",
  "databaseURL": "https://directory2-a9aaf.firebaseio.com",
  "storageBucket":"directory2-a9aaf.appspot.com"
}